{
    "proceses": [
        {   
            "id": 1,
            "name": "Производство продукции",
            "selected": false
        },
        {   
            "id": 2,
            "name": "Реализация продукции",
            "selected": false
        },
        {   
            "id": 3,
            "name": "Исследование рынка, поиск новых покупателей",
            "selected": false
        },
        {   
            "id": 4,
            "name": "Складирование и хранение продукции",
            "selected": false
        },
        {   
            "id": 5,
            "name": "Бухгалтерское обеспечение",
            "selected": false
        },
        {   
            "id": 6,
            "name": "Работа с персоналом",
            "selected": false
        },
        {   
            "id": 7,
            "name": "Обслуживание сельскохозяйственной техники",
            "selected": false
        },
        {   
            "id": 8,
            "name": "Закупка необходимых материалов",
            "selected": false
        },
        {   
            "id": 9,
            "name": "Управление информационными ресурсами",
            "selected": false
        }
    ],

    "table": [
        {
            "id": 1,
            "title": "Проектирование",
            "subtables": [
                {   
                    "index": 0,
                    "subtableId": 1,
                    "subtitle": "Цели",
                    "questions" : [
                        {
                            "id": 1,
                            "text": "Сквозных процессов на предприятии нет. Для повышения эффективности функциональных отделов менеджеры используют большей частью привычные, хотя и устаревшие, методы работы.",
                            "answer": "Пересмотр и реорганизация функциональных отделов.",
                            "color": null
                        },
                        {
                            "id": 2,
                            "text": "В целях повышения эффективности спроектирован новый сквозной процесс.",
                            "answer": "Cоздание сквозного процесса.",
                            "color": null
                        },
                        {
                            "id": 3,
                            "text": "Процесс спроектирован с учетом построения других действующих процессов на предприятии, а также с учетом особенностей информационной системы",
                            "answer": "Реинжиниринг сквозного процесса с учетом особенностей других действующих на предприятии процессов и использующихся систем.",
                            "color": null
                        },
                        {
                            "id": 4,
                            "text": "Процесс спроектирован с учетом процессов клиентов и поставщиков, чтобы оптимизировать совместную работу.",
                            "answer": "Реинжиниринг сквозного процесса с учетом процессов клиентов и поставщиков.",
                            "color": null
                        }
                    ]
                },
                {
                    "index": 1,
                    "subtableId": 2,
                    "subtitle": "Окружение процесса",
                    "questions" : [
                        {
                            "id": 1,
                            "text": "Определены входные и выходные данные, связанные с поставщиками и потребителями процесса.",
                            "answer": "Определить необходимые данные для начала процесса и результаты процесса.",
                            "color": null
                        },
                        {
                            "id": 2,
                            "text": "Потребности клиентов процесса известны и четко определены.",
                            "answer": "Определить потребности клиентов процесса.",
                            "color": null
                        },
                        {
                            "id": 3,
                            "text": "Руководитель процесса и руководители других процессов, взаимо-действующих с этим процессом, договорились о сотрудничестве и знают, чего ожидать друг от друга.",
                            "answer": "Разработка нормативно-методические документы, которые должны регламентировать взаимодействие подразделений.",
                            "color": null
                        },
                        {
                            "id": 4,
                            "text": "Руководитель процесса и руководители смежных процессов со стороны клиентов и поставщиков договорились о сотрудничестве и знают, чего ожидать друг от друга",
                            "answer": "Анализ требований внешних потребителей, обеспечение определения и создания обоюдно согласованных процессов результативного и эффективного взаимодействия с потребителями и другими заинтересованными сторонами.",
                            "color": null
                        }
                    ]
                },
                {
                    "index": 2,
                    "subtableId": 3,
                    "subtitle": "Документация",
                    "questions" : [
                        {
                            "id": 1,
                            "text": "Документация по процессу содержит в основном описание функций, но в ней также обозначено, как отделы, задействованные в процессе, взаимодействуют друг с другом.",
                            "answer": "Определение и документирование функций отделов и их взаимодействия.",
                            "color": null
                        },
                        {
                            "id": 2,
                            "text": "Проект сквозного процесса полностью задокументирован.",
                            "answer": "Документирование сквозного процесса.",
                            "color": null
                        },
                        {
                            "id": 3,
                            "text": "В  документации по процессу описано, как данный процесс взаимодействует с другими процессами, а также как он связан с информационной системой предприятия.",
                            "answer": "Документирование взаимодействия процесса с другими процессами и используемой информационной системой.",
                            "color": null
                        },
                        {
                            "id": 4,
                            "text": "Документация по процессу представлена в электронном виде, она облегчает управление процессом, позволяет провести анализ факторов среды и предоставляет возможность дополнительной настройки процесса.",
                            "answer": "Перевод документации процесса в электронный вид.",
                            "color": null
                        }
                    ]
                }
            ]
        },
		{
            "id": 2,
            "title": "Исполнители",
            "subtables": [
                {
                    "index": 3,
                    "subtableId": 1,
                    "subtitle": "Знания",
                    "questions" : [
                        {
                            "id": 1,
                            "text": "Исполнители могут сказать, как называется процесс, в котором они учавствуют. И определить для него ключевые показатели эффективности.",
                            "answer": "Определение показателей эффективности процессов, ознакомление исполнителей с регламентом процесса.",
                            "color": null
                        },
                        {
                            "id": 2,
                            "text": "Исполнители могут перечислить все шаги процесса, объяснить. Какое влияние их действия имеют на клиентов, на работу других участников процесса и его эффективность в целом. Исполнители знают, какой уровень эффективности от них требуется в настоящий момент.",
                            "answer": "Обеспечить понимание бизнес-процесса исполнителем и их роль в нем.",
                            "color": null
                        },
                        {
                            "id": 3,
                            "text": "Исполнители знакомы с основными бизнес-процессами и факторами эффективности работы предприятия, а также могут описать, как их работа воздействует на эффективность процессов и всей организациию",
                            "answer": "Обеспечить полное понимание бизнес-процесса исполнителем.",
                            "color": null
                        },
                        {
                            "id": 4,
                            "text": "Исполнители знакомы с особенностями и тенденциями развития отрасли, в которой работает компания, и знают, как могут повлиять на ситуацию в данной отрасли.",
                            "answer": "Обеспечить возможность исполнителей следить за тенденциями в их отрасли.",
                            "color": null
                        }
                    ]
                },
                {
                    "index": 4,
                    "subtableId": 2,
                    "subtitle": "Навыки",
                    "questions" : [
                        {
                            "id": 1,
                            "text": "Исполнители освоили методы решения проблем и улучшения процессов.",
                            "answer": "Развитие у исполнителей навыков улучшения процессов.",
                            "color": null
                        },
                        {
                            "id": 2,
                            "text": "Исполнители отлично умеют работать в команде и знакомы с методами самоуправления.",
                            "answer": "Обучение исполнителей навыкам работы в команде им методам самоуправления.",
                            "color": null
                        },
                        {
                            "id": 3,
                            "text": "Исполнители обучены принимать важные бизнес-решения.",
                            "answer": "Обучить исполнителей принимать важные бизнес-решения.",
                            "color": null
                        },
                        {
                            "id": 4,
                            "text": "Исполнители умеют управлять изменениями и внедрять новые методы работы в организации.",
                            "answer": "Повысить навык управления изменениями.",
                            "color": null
                        }
                    ]
                },
                {
                    "index": 5,
                    "subtableId": 3,
                    "subtitle": "Поведение",
                    "questions" : [
                        {
                            "id": 1,
                            "text": "Исполнители проявляют интерес к работе над процессами. Но функциональные обязанности имеют для них большое значение.",
                            "answer": "Повышение мотивации исполнителей.",
                            "color": null
                        },
                        {
                            "id": 2,
                            "text": "Исполнители пытаются следовать требованиям нового процесса, выполнять его правильно и работать так, чтобы другие участники процесса тоже хорошо выполняли свои обязанности.",
                            "answer": "Повышение мотивации исполнителей, поощрение исполнителей.",
                            "color": null
                        },
                        {
                            "id": 3,
                            "text": "Исполнители делают все, чтобы процесс дал результаты. Необходимые для достижения целей предприятия.",
                            "answer": "Повышение мотивации исполнителей, поощрение исполнителей.",
                            "color": null
                        },
                        {
                            "id": 4,
                            "text": "Исполнители смотрят, нужно ли что-нибудь улучшить в процессе, и предлагают свои проекты.",
                            "answer": "Повышение мотивации исполнителей, поощрение исполнителей.",
                            "color": null
                        }
                    ]
                }
            ]
        },
		{
            "id": 3,
            "title": "Владелец процесса",
            "subtables": [
                {
                    "index": 6,
                    "subtableId": 1,
                    "subtitle": "Личность",
                    "questions" : [
                        {
                            "id": 1,
                            "text": "Руководитель процесса – человек или группа людей, которым поручено повысить эффективность процесса.",
                            "answer": "Определить руководителей процесса.",
                            "color": null
                        },
                        {
                            "id": 2,
                            "text": "Руководством предприятия создана официальная должность руководителя процесса, и ее занимает влиятельный менеджер высшего звена, пользующийся доверием персонала.",
                            "answer": "Создание официальной должности руководителя процесса.",
                            "color": null
                        },
                        {
                            "id": 3,
                            "text": "Руководитель процесса уделяет работе над ним почти все время, улучшение процесса – его главная цель.",
                            "answer": "Реорганизовать работу руководителя так, чтобы основной его деятельностью было ¬– улучшение процесса.",
                            "color": null
                        },
                        {
                            "id": 4,
                            "text": "Руководитель процесса входит в состав главного управляющего органа предприятия.",
                            "answer": "Включить руководителя в состав главного управляющего органа.",
                            "color": null
                        }
                    ]
                },
                {
                    "index": 7,
                    "subtableId": 2,
                    "subtitle": "Деятельность",
                    "questions" : [
                        {
                            "id": 1,
                            "text": "Руководитель процесса определяет его этапы и составляет документацию по нему, он объясняет исполнителям порядок действий и выносит на рассмотрение небольшие проекты по улучшению процесса.",
                            "answer": "Руководитель процесса определяет этапы процесса и составляет документацию по нему.",
                            "color": null
                        },
                        {
                            "id": 2,
                            "text": "Руководитель процесса устанавливает его цели и объясняет сотрудникам, каким этот процесс должен стать в будущем. Он запускает в действие преобразования, планирует внедрение проектов по улучшению процесса и обеспечивает правильную реализацию нового процесса.",
                            "answer": "Обеспечение возможности руководителя процесса в преобразовании процесса.",
                            "color": null
                        },
                        {
                            "id": 3,
                            "text": "Руководитель процесса сотрудничает с руководителем других процессов, чтобы согласовывать процессы между собой и быстрее достигать целей предприятия.",
                            "answer": "Обеспечить сотрудничество руководителей процесса между собой.",
                            "color": null
                        },
                        {
                            "id": 4,
                            "text": "Руководитель процесса составляет и постоянно обновляет стратегический план развития процесса, учувствует в планировании работы всего предприятия, а также вместе с клиентами и поставщиками разрабатывает совместные проекты перестройки процессов.",
                            "answer": "Обеспечение участия руководителя процесса в перестройке процесса.",
                            "color": null
                        }
                    ]
                },
                {
                    "index": 8,
                    "subtableId": 3,
                    "subtitle": "Показатели",
                    "questions" : [
                        {
                            "id": 1,
                            "text": "Руководитель процесса защищает его интересы, но он может лишь уговаривать руководителей отделов вносить необходимые изменения в работу.",
                            "answer": "Обеспечить возможность руководителю вносить изменения в проект.",
                            "color": null
                        },
                        {
                            "id": 2,
                            "text": "Руководитель процесса собирает команду по проектированию и создает новый проект, он вправе использовать некоторую часть бюджета на внедрение информационных технологий для целей процесса.",
                            "answer": "Обеспечение возможности руководителя процесса использовать часть бюджета на внедрение ИТ-технологий, а также на создание команды на проектирование нового процесса.",
                            "color": null
                        },
                        {
                            "id": 3,
                            "text": "Информационные системы, поддерживающие процесс, находятся в ведении его руководителя, он же управляет любыми проектами по внесению изменений в процесс. Кроме того, руководитель процесса влияет на распределение трудовых ресурсов и бюджетных средств, выделенных для реализации процесса.",
                            "answer": "Обеспечение возможности руководителя процесса распределять бюджет и внесении изменений в процесс.",
                            "color": null
                        },
                        {
                            "id": 4,
                            "text": "Руководитель процесса контролирует бюджет, выделенный для процесса, и влияет на распределение задач между сотрудниками и оценку эффективности труда.",
                            "answer": "Обеспечение возможности руководителя процесса на распределение бюджета и средств на процесс.",
                            "color": null
                        }
                    ]
                }
            ]
			
        },
		{
            "id": 4,
            "title": "Инфраструктура",
            "subtables": [
                {
                    "index": 9,
                    "subtableId": 1,
                    "subtitle": "Информационные системы",
                    "questions" : [
                        {
                            "id": 1,
                            "text": "Для поддержания процесса используется фрагментированная информационная система.",
                            "answer": "Для поддержки процесса рекомендуется использовать фрагментированную информационную систему.",
                            "color": null
                        },
                        {
                            "id": 2,
                            "text": "Информационная система, собранная из функциональных компонентов, поддерживает процесс.",
                            "answer": "Построение и внедрение системы из функциональных компонент.",
                            "color": null
                        },
                        {
                            "id": 3,
                            "text": "Интегрированная ИС построена с учетом целей процесса и стандартов предприятия.",
                            "answer": "Внедрение системы для моделирования, регламентации и оптимизации процесса.",
                            "color": null
                        },
                        {
                            "id": 4,
                            "text": "ИС с модульной архитектурой поддерживает стандарты данной отрасли и обеспечивает взаимодействие процесса с процессами других предприятий.",
                            "answer": "Внедрение системы для моделирования, регламентации и оптимизации процесса, а также взаимодействия с другими предприятиями.",
                            "color": null
                        }
                    ]
                },
                {
                    "index": 10,
                    "subtableId": 2,
                    "subtitle": "Управление кадрами",
                    "questions" : [
                        {
                            "id": 1,
                            "text": "Руководители отделов поощряют сотрудников за повышение эффективности подразделения и решение возникающих проблем  с помощью методов процессного подхода.",
                            "answer": "Поощрение сотрудников при использовании методов процессного управления для решения проблем.",
                            "color": null
                        },
                        {
                            "id": 2,
                            "text": "В проекте процесса определены роли, обязанности участников и требования к их профессиональному уровню. Профессиональная подготовка проводится на основе документации по процессу.",
                            "answer": "Проведение профессиональной подготовки участников процесса на основании документации по процессу.",
                            "color": null
                        },
                        {
                            "id": 3,
                            "text": "Система найма, обучения, вознаграждения и поощрения построены с учетом потребностей и результатов процесса, они устанавливают равновесие между нуждами процесса и задачами предприятия.",
                            "answer": "Поощрение участников процесса должно быть устроено с учетом потребностей и результатов процесса.",
                            "color": null
                        },
                        {
                            "id": 4,
                            "text": "Системы найма, обучения, вознаграждения и поощрения построены с учетом большой возможности сотрудничества между людьми как внутри предприятия, так и снаружи, т. е. с поставщиками и клиентами; стремление повысить уровень знаний и улучшить процессы приветствуется.",
                            "answer": "Построение системы найма с учетом сотрудничества с другими предприятиями.",
                            "color": null
                        }
                    ]
                }
        
            ]
        },
		{
            "id": 5,
            "title": "Показатели",
            "subtables": [
                {
                    "index": 11,
                    "subtableId": 1,
                    "subtitle": "Определение",
                    "questions" : [
                        {
                            "id": 1,
                            "text": "Для процесса определены некоторые показатели затрат и качества.",
                            "answer": "Определить для процесса показатели затрат и качества.",
                            "color": null
                        },
                        {
                            "id": 2,
                            "text": "У процесса имеются сквозные показатели эффективности, созданные на основании требований клиентов.",
                            "answer": "Определить сквозные показатели эффективности процесса на основании требований клиентов.",
                            "color": null
                        },
                        {
                            "id": 3,
                            "text": "Показатели эффективности процессов, равно как и показатели взаимодействия разных процессов друг с другом, определены исходя из стратегических целей предприятия.",
                            "answer": "Определить показатели эффективности процессов при взаимодействии разных процессов. Провести процедуру оценки взаимодействия процессов.",
                            "color": null
                        },
                        {
                            "id": 4,
                            "text": "Показатели эффективности процессов определены исходя из целей успешного сотрудничества предприятия с другим предприятием.",
                            "answer": "Определить показатели эффективности процессов исходя из целей сотрудничества с внешними потребителями.",
                            "color": null
                        }
                    ]
                },
                {
                    "index": 12,
                    "subtableId": 2,
                    "subtitle": "Использование",
                    "questions" : [
                        {
                            "id": 1,
                            "text": "Менеджеры используют показатели процесса для измерения его эффективности, находят главные причины низкой производительности и производят улучшения в работе отделов.",
                            "answer": "Применение показателей процесса для измерения его эффективности.",
                            "color": null
                        },
                        {
                            "id": 2,
                            "text": "Менеджеры сравнивают показатели эффективности процесса с лучшими показателями в отрасли; с помощью показателей эффективности они измеряют уровень удовлетворённости клиентов и устанавливают цели для дальнейшей работы.",
                            "answer": "Использование показателей эффективности с лучшими показателями отрасли для определения дальнейшей работы.",
                            "color": null
                        },
                        {
                            "id": 3,
                            "text": "Менеджеры сообщают о значениях показателей эффективности участникам процесса, тем самым мотивируя их на достижение требуемого уровня эффективности.",
                            "answer": "Мотивирование участников процесса с помощью показателей эффективности процесса.",
                            "color": null
                        },
                        {
                            "id": 4,
                            "text": "Менеджеры регулярно просматривают и обновляют цели и показатели эффективности процессов и используют их в стратегическом планировании.",
                            "answer": "Использование показателей эффективности при стратегическом планировании.",
                            "color": null
                        }
                    ]
                }
            ]
        }
    ]
}